%YAML 1.1
%TAG !u! tag:unity3d.com,2011:
--- !u!1 &5843584936503909234
GameObject:
  m_ObjectHideFlags: 0
  m_CorrespondingSourceObject: {fileID: 0}
  m_PrefabInstance: {fileID: 0}
  m_PrefabAsset: {fileID: 0}
  serializedVersion: 6
  m_Component:
  - component: {fileID: 5324008285948922368}
  - component: {fileID: 2060883260396685954}
  m_Layer: 31
  m_Name: tileFondo
  m_TagString: Untagged
  m_Icon: {fileID: 0}
  m_NavMeshLayer: 0
  m_StaticEditorFlags: 0
  m_IsActive: 1
--- !u!4 &5324008285948922368
Transform:
  m_ObjectHideFlags: 0
  m_CorrespondingSourceObject: {fileID: 0}
  m_PrefabInstance: {fileID: 0}
  m_PrefabAsset: {fileID: 0}
  m_GameObject: {fileID: 5843584936503909234}
  m_LocalRotation: {x: 0, y: 0, z: 0, w: 1}
  m_LocalPosition: {x: 0, y: 0, z: 0}
  m_LocalScale: {x: 1, y: 1, z: 1}
  m_Children:
  - {fileID: 4726180469288058098}
  m_Father: {fileID: 0}
  m_RootOrder: 0
  m_LocalEulerAnglesHint: {x: 0, y: 0, z: 0}
--- !u!156049354 &2060883260396685954
Grid:
  m_ObjectHideFlags: 0
  m_CorrespondingSourceObject: {fileID: 0}
  m_PrefabInstance: {fileID: 0}
  m_PrefabAsset: {fileID: 0}
  m_GameObject: {fileID: 5843584936503909234}
  m_Enabled: 1
  m_CellSize: {x: 0.4, y: 0.4, z: 0}
  m_CellGap: {x: 0, y: 0, z: 0}
  m_CellLayout: 0
  m_CellSwizzle: 0
--- !u!1 &6893550554061825675
GameObject:
  m_ObjectHideFlags: 0
  m_CorrespondingSourceObject: {fileID: 0}
  m_PrefabInstance: {fileID: 0}
  m_PrefabAsset: {fileID: 0}
  serializedVersion: 6
  m_Component:
  - component: {fileID: 4726180469288058098}
  - component: {fileID: 4148679611499217575}
  - component: {fileID: 3823759430615771277}
  m_Layer: 0
  m_Name: Layer1
  m_TagString: Untagged
  m_Icon: {fileID: 0}
  m_NavMeshLayer: 0
  m_StaticEditorFlags: 0
  m_IsActive: 1
--- !u!4 &4726180469288058098
Transform:
  m_ObjectHideFlags: 0
  m_CorrespondingSourceObject: {fileID: 0}
  m_PrefabInstance: {fileID: 0}
  m_PrefabAsset: {fileID: 0}
  m_GameObject: {fileID: 6893550554061825675}
  m_LocalRotation: {x: -0, y: -0, z: -0, w: 1}
  m_LocalPosition: {x: 0, y: 0, z: 0}
  m_LocalScale: {x: 1, y: 1, z: 1}
  m_Children: []
  m_Father: {fileID: 5324008285948922368}
  m_RootOrder: 0
  m_LocalEulerAnglesHint: {x: 0, y: 0, z: 0}
--- !u!1839735485 &4148679611499217575
Tilemap:
  m_ObjectHideFlags: 0
  m_CorrespondingSourceObject: {fileID: 0}
  m_PrefabInstance: {fileID: 0}
  m_PrefabAsset: {fileID: 0}
  m_GameObject: {fileID: 6893550554061825675}
  m_Enabled: 1
  m_Tiles:
  - first: {x: 2, y: -9, z: 0}
    second:
      serializedVersion: 2
      m_TileIndex: 30
      m_TileSpriteIndex: 0
      m_TileMatrixIndex: 0
      m_TileColorIndex: 0
      m_TileObjectToInstantiateIndex: 65535
      dummyAlignment: 0
      m_AllTileFlags: 1073741825
  - first: {x: 3, y: -9, z: 0}
    second:
      serializedVersion: 2
      m_TileIndex: 25
      m_TileSpriteIndex: 1
      m_TileMatrixIndex: 0
      m_TileColorIndex: 0
      m_TileObjectToInstantiateIndex: 65535
      dummyAlignment: 0
      m_AllTileFlags: 1073741825
  - first: {x: 4, y: -9, z: 0}
    second:
      serializedVersion: 2
      m_TileIndex: 26
      m_TileSpriteIndex: 2
      m_TileMatrixIndex: 0
      m_TileColorIndex: 0
      m_TileObjectToInstantiateIndex: 65535
      dummyAlignment: 0
      m_AllTileFlags: 1073741825
  - first: {x: 5, y: -9, z: 0}
    second:
      serializedVersion: 2
      m_TileIndex: 27
      m_TileSpriteIndex: 4294967295
      m_TileMatrixIndex: 0
      m_TileColorIndex: 0
      m_TileObjectToInstantiateIndex: 65535
      dummyAlignment: 0
      m_AllTileFlags: 1073741825
  - first: {x: 2, y: -8, z: 0}
    second:
      serializedVersion: 2
      m_TileIndex: 29
      m_TileSpriteIndex: 3
      m_TileMatrixIndex: 0
      m_TileColorIndex: 0
      m_TileObjectToInstantiateIndex: 65535
      dummyAlignment: 0
      m_AllTileFlags: 1073741825
  - first: {x: 3, y: -8, z: 0}
    second:
      serializedVersion: 2
      m_TileIndex: 23
      m_TileSpriteIndex: 4
      m_TileMatrixIndex: 0
      m_TileColorIndex: 0
      m_TileObjectToInstantiateIndex: 65535
      dummyAlignment: 0
      m_AllTileFlags: 1073741825
  - first: {x: 4, y: -8, z: 0}
    second:
      serializedVersion: 2
      m_TileIndex: 24
      m_TileSpriteIndex: 5
      m_TileMatrixIndex: 0
      m_TileColorIndex: 0
      m_TileObjectToInstantiateIndex: 65535
      dummyAlignment: 0
      m_AllTileFlags: 1073741825
  - first: {x: 5, y: -8, z: 0}
    second:
      serializedVersion: 2
      m_TileIndex: 28
      m_TileSpriteIndex: 6
      m_TileMatrixIndex: 0
      m_TileColorIndex: 0
      m_TileObjectToInstantiateIndex: 65535
      dummyAlignment: 0
      m_AllTileFlags: 1073741825
  - first: {x: 3, y: -4, z: 0}
    second:
      serializedVersion: 2
      m_TileIndex: 18
      m_TileSpriteIndex: 10
      m_TileMatrixIndex: 0
      m_TileColorIndex: 0
      m_TileObjectToInstantiateIndex: 65535
      dummyAlignment: 0
      m_AllTileFlags: 1073741825
  - first: {x: 4, y: -4, z: 0}
    second:
      serializedVersion: 2
      m_TileIndex: 15
      m_TileSpriteIndex: 11
      m_TileMatrixIndex: 0
      m_TileColorIndex: 0
      m_TileObjectToInstantiateIndex: 65535
      dummyAlignment: 0
      m_AllTileFlags: 1073741825
  - first: {x: 5, y: -4, z: 0}
    second:
      serializedVersion: 2
      m_TileIndex: 17
      m_TileSpriteIndex: 12
      m_TileMatrixIndex: 0
      m_TileColorIndex: 0
      m_TileObjectToInstantiateIndex: 65535
      dummyAlignment: 0
      m_AllTileFlags: 1073741825
  - first: {x: 7, y: -4, z: 0}
    second:
      serializedVersion: 2
      m_TileIndex: 16
      m_TileSpriteIndex: 13
      m_TileMatrixIndex: 0
      m_TileColorIndex: 0
      m_TileObjectToInstantiateIndex: 65535
      dummyAlignment: 0
      m_AllTileFlags: 1073741825
  - first: {x: 3, y: -3, z: 0}
    second:
      serializedVersion: 2
      m_TileIndex: 14
      m_TileSpriteIndex: 14
      m_TileMatrixIndex: 0
      m_TileColorIndex: 0
      m_TileObjectToInstantiateIndex: 65535
      dummyAlignment: 0
      m_AllTileFlags: 1073741825
  - first: {x: 4, y: -3, z: 0}
    second:
      serializedVersion: 2
      m_TileIndex: 13
      m_TileSpriteIndex: 15
      m_TileMatrixIndex: 0
      m_TileColorIndex: 0
      m_TileObjectToInstantiateIndex: 65535
      dummyAlignment: 0
      m_AllTileFlags: 1073741825
  - first: {x: 5, y: -3, z: 0}
    second:
      serializedVersion: 2
      m_TileIndex: 12
      m_TileSpriteIndex: 16
      m_TileMatrixIndex: 0
      m_TileColorIndex: 0
      m_TileObjectToInstantiateIndex: 65535
      dummyAlignment: 0
      m_AllTileFlags: 1073741825
  - first: {x: 7, y: -3, z: 0}
    second:
      serializedVersion: 2
      m_TileIndex: 11
      m_TileSpriteIndex: 17
      m_TileMatrixIndex: 0
      m_TileColorIndex: 0
      m_TileObjectToInstantiateIndex: 65535
      dummyAlignment: 0
      m_AllTileFlags: 1073741825
  - first: {x: -1, y: -2, z: 0}
    second:
      serializedVersion: 2
      m_TileIndex: 10
      m_TileSpriteIndex: 18
      m_TileMatrixIndex: 0
      m_TileColorIndex: 0
      m_TileObjectToInstantiateIndex: 65535
      dummyAlignment: 0
      m_AllTileFlags: 1073741825
  - first: {x: 2, y: -1, z: 0}
    second:
      serializedVersion: 2
      m_TileIndex: 8
      m_TileSpriteIndex: 19
      m_TileMatrixIndex: 0
      m_TileColorIndex: 0
      m_TileObjectToInstantiateIndex: 65535
      dummyAlignment: 0
      m_AllTileFlags: 1073741825
  - first: {x: 3, y: -1, z: 0}
    second:
      serializedVersion: 2
      m_TileIndex: 6
      m_TileSpriteIndex: 20
      m_TileMatrixIndex: 0
      m_TileColorIndex: 0
      m_TileObjectToInstantiateIndex: 65535
      dummyAlignment: 0
      m_AllTileFlags: 1073741825
  - first: {x: -1, y: 0, z: 0}
    second:
      serializedVersion: 2
      m_TileIndex: 3
      m_TileSpriteIndex: 21
      m_TileMatrixIndex: 0
      m_TileColorIndex: 0
      m_TileObjectToInstantiateIndex: 65535
      dummyAlignment: 0
      m_AllTileFlags: 1073741825
  - first: {x: 0, y: 0, z: 0}
    second:
      serializedVersion: 2
      m_TileIndex: 4
      m_TileSpriteIndex: 22
      m_TileMatrixIndex: 0
      m_TileColorIndex: 0
      m_TileObjectToInstantiateIndex: 65535
      dummyAlignment: 0
      m_AllTileFlags: 1073741825
  - first: {x: 2, y: 0, z: 0}
    second:
      serializedVersion: 2
      m_TileIndex: 1
      m_TileSpriteIndex: 23
      m_TileMatrixIndex: 0
      m_TileColorIndex: 0
      m_TileObjectToInstantiateIndex: 65535
      dummyAlignment: 0
      m_AllTileFlags: 1073741825
  - first: {x: 3, y: 0, z: 0}
    second:
      serializedVersion: 2
      m_TileIndex: 2
      m_TileSpriteIndex: 24
      m_TileMatrixIndex: 0
      m_TileColorIndex: 0
      m_TileObjectToInstantiateIndex: 65535
      dummyAlignment: 0
      m_AllTileFlags: 1073741825
  - first: {x: -1, y: 1, z: 0}
    second:
      serializedVersion: 2
      m_TileIndex: 9
      m_TileSpriteIndex: 25
      m_TileMatrixIndex: 0
      m_TileColorIndex: 0
      m_TileObjectToInstantiateIndex: 65535
      dummyAlignment: 0
      m_AllTileFlags: 1073741825
  - first: {x: 0, y: 1, z: 0}
    second:
      serializedVersion: 2
      m_TileIndex: 7
      m_TileSpriteIndex: 26
      m_TileMatrixIndex: 0
      m_TileColorIndex: 0
      m_TileObjectToInstantiateIndex: 65535
      dummyAlignment: 0
      m_AllTileFlags: 1073741825
  - first: {x: 2, y: 1, z: 0}
    second:
      serializedVersion: 2
      m_TileIndex: 5
      m_TileSpriteIndex: 27
      m_TileMatrixIndex: 0
      m_TileColorIndex: 0
      m_TileObjectToInstantiateIndex: 65535
      dummyAlignment: 0
      m_AllTileFlags: 1073741825
  - first: {x: 3, y: 1, z: 0}
    second:
      serializedVersion: 2
      m_TileIndex: 0
      m_TileSpriteIndex: 28
      m_TileMatrixIndex: 0
      m_TileColorIndex: 0
      m_TileObjectToInstantiateIndex: 65535
      dummyAlignment: 0
      m_AllTileFlags: 1073741825
  - first: {x: 5, y: 1, z: 0}
    second:
      serializedVersion: 2
      m_TileIndex: 19
      m_TileSpriteIndex: 29
      m_TileMatrixIndex: 0
      m_TileColorIndex: 0
      m_TileObjectToInstantiateIndex: 65535
      dummyAlignment: 0
      m_AllTileFlags: 1073741825
  m_AnimatedTiles: {}
  m_TileAssetArray:
  - m_RefCount: 1
    m_Data: {fileID: 11400000, guid: b1d7f4eb43583ad4c85f3f06347d235c, type: 2}
  - m_RefCount: 1
    m_Data: {fileID: 11400000, guid: 74bdfcda2ed300047b64adba9510d163, type: 2}
  - m_RefCount: 1
    m_Data: {fileID: 11400000, guid: 365bd0822244b9947a972148a6f4c37f, type: 2}
  - m_RefCount: 1
    m_Data: {fileID: 11400000, guid: 56d0a06988213da4381a83277ad16b3e, type: 2}
  - m_RefCount: 1
    m_Data: {fileID: 11400000, guid: b8f7d21c3ef656449b6593f22d94b27a, type: 2}
  - m_RefCount: 1
    m_Data: {fileID: 11400000, guid: 49936846c5fb344489e9cd5cbb7cfa67, type: 2}
  - m_RefCount: 1
    m_Data: {fileID: 11400000, guid: bc09fe283d218754c82901b1f897fb34, type: 2}
  - m_RefCount: 1
    m_Data: {fileID: 11400000, guid: 3d833362e3843d1439bb190733113260, type: 2}
  - m_RefCount: 1
    m_Data: {fileID: 11400000, guid: af733dbe70ed05d4392b09a0642c2314, type: 2}
  - m_RefCount: 1
    m_Data: {fileID: 11400000, guid: df32a7dbcd2f3944e94fded5c9983e7f, type: 2}
  - m_RefCount: 1
    m_Data: {fileID: 11400000, guid: c0bb04e5c125cd144bf2707b5f06f2f9, type: 2}
  - m_RefCount: 1
    m_Data: {fileID: 11400000, guid: 62450e1de3187824a9ccce4b6223dc5a, type: 2}
  - m_RefCount: 1
    m_Data: {fileID: 11400000, guid: d26c0c9aa6816f74684e214878d28bc7, type: 2}
  - m_RefCount: 1
    m_Data: {fileID: 11400000, guid: 0354c934397e2734fbb0b34963a8e67d, type: 2}
  - m_RefCount: 1
    m_Data: {fileID: 11400000, guid: 530530114b93c9a4eb24e118978a53b1, type: 2}
  - m_RefCount: 1
    m_Data: {fileID: 11400000, guid: 839ac3701471ffb428261c57bd293261, type: 2}
  - m_RefCount: 1
    m_Data: {fileID: 11400000, guid: a4fef8576b19a9c42aee24fd2c00bac4, type: 2}
  - m_RefCount: 1
    m_Data: {fileID: 11400000, guid: 05a26b96c4e047e459071f02e3ef2e32, type: 2}
  - m_RefCount: 1
    m_Data: {fileID: 11400000, guid: 7529712c875d83d42baeff45d0538660, type: 2}
  - m_RefCount: 1
    m_Data: {fileID: 11400000, guid: 24e7618c1432af540b1027ec30eda89e, type: 2}
  - m_RefCount: 0
    m_Data: {fileID: 0}
  - m_RefCount: 0
    m_Data: {fileID: 0}
  - m_RefCount: 0
    m_Data: {fileID: 0}
  - m_RefCount: 1
    m_Data: {fileID: 11400000, guid: 19d231fe8a21dfe4389b683925e47a2e, type: 2}
  - m_RefCount: 1
    m_Data: {fileID: 11400000, guid: c98fb0d258cdda04d89ce43843d49169, type: 2}
  - m_RefCount: 1
    m_Data: {fileID: 11400000, guid: 1165442be9c03254f9239c173bf93535, type: 2}
  - m_RefCount: 1
    m_Data: {fileID: 11400000, guid: 06cd34d6ee04d244f84a1dc0c2bb9503, type: 2}
  - m_RefCount: 1
    m_Data: {fileID: 11400000, guid: 19977db796cf4b84ba27cbb18a7890a9, type: 2}
  - m_RefCount: 1
    m_Data: {fileID: 11400000, guid: 44eeee48f7156bb489bfd8efdc8d1645, type: 2}
  - m_RefCount: 1
    m_Data: {fileID: 11400000, guid: 2c266651eb2b2c54e871f7e158880c9a, type: 2}
  - m_RefCount: 1
    m_Data: {fileID: 11400000, guid: 1dae50d71ec4e0f48a88fae30197e4b6, type: 2}
  m_TileSpriteArray:
  - m_RefCount: 1
    m_Data: {fileID: 21300000, guid: 41318e22e4591b84994ca05456b08fe7, type: 3}
  - m_RefCount: 1
    m_Data: {fileID: 21300000, guid: f988a4714230c464b86cbca3944327ae, type: 3}
  - m_RefCount: 1
    m_Data: {fileID: 21300000, guid: 4eaa826030d831e45b25269e0ccdde72, type: 3}
  - m_RefCount: 1
    m_Data: {fileID: 21300000, guid: d24a78818e1fa494e80f4dddea9fc311, type: 3}
  - m_RefCount: 1
    m_Data: {fileID: 21300000, guid: 7bd2197df067590488a1c7be790e77d6, type: 3}
  - m_RefCount: 1
    m_Data: {fileID: 21300000, guid: 2653ca4e7c9c7b2409afa44c5cb2334f, type: 3}
  - m_RefCount: 1
    m_Data: {fileID: 21300000, guid: 9d02c13da1a75544bb4438e509ffc1cd, type: 3}
  - m_RefCount: 0
    m_Data: {fileID: 0}
  - m_RefCount: 0
    m_Data: {fileID: 0}
  - m_RefCount: 0
    m_Data: {fileID: 0}
  - m_RefCount: 1
    m_Data: {fileID: -1411830633692142192, guid: a269f232603138245a85ad9f67381dff, type: 3}
  - m_RefCount: 1
    m_Data: {fileID: 8438657110231518343, guid: a269f232603138245a85ad9f67381dff, type: 3}
  - m_RefCount: 1
    m_Data: {fileID: -3003982964875710395, guid: a269f232603138245a85ad9f67381dff, type: 3}
  - m_RefCount: 1
    m_Data: {fileID: 2872444331674190694, guid: a269f232603138245a85ad9f67381dff, type: 3}
  - m_RefCount: 1
    m_Data: {fileID: -6625301085495518115, guid: a269f232603138245a85ad9f67381dff, type: 3}
  - m_RefCount: 1
    m_Data: {fileID: -5823907466404149541, guid: a269f232603138245a85ad9f67381dff, type: 3}
  - m_RefCount: 1
    m_Data: {fileID: -2337857777857585898, guid: a269f232603138245a85ad9f67381dff, type: 3}
  - m_RefCount: 1
    m_Data: {fileID: 6979623369639896131, guid: a269f232603138245a85ad9f67381dff, type: 3}
  - m_RefCount: 1
    m_Data: {fileID: 21300000, guid: 3ec6eda6c6e8f9b4b834bab45e0acac8, type: 3}
  - m_RefCount: 1
    m_Data: {fileID: -3718020969999653077, guid: 296c53e0908a85848a5a3bec8c933a6e, type: 3}
  - m_RefCount: 1
    m_Data: {fileID: -4473554079132131015, guid: 296c53e0908a85848a5a3bec8c933a6e, type: 3}
  - m_RefCount: 1
    m_Data: {fileID: -7289178230066185966, guid: 296c53e0908a85848a5a3bec8c933a6e, type: 3}
  - m_RefCount: 1
    m_Data: {fileID: -113938230342917849, guid: 296c53e0908a85848a5a3bec8c933a6e, type: 3}
  - m_RefCount: 1
    m_Data: {fileID: 5090018107685305776, guid: 296c53e0908a85848a5a3bec8c933a6e, type: 3}
  - m_RefCount: 1
    m_Data: {fileID: -9117358011029420329, guid: 296c53e0908a85848a5a3bec8c933a6e, type: 3}
  - m_RefCount: 1
    m_Data: {fileID: 7399533318584292489, guid: 296c53e0908a85848a5a3bec8c933a6e, type: 3}
  - m_RefCount: 1
    m_Data: {fileID: 7713819393718715255, guid: 296c53e0908a85848a5a3bec8c933a6e, type: 3}
  - m_RefCount: 1
    m_Data: {fileID: -3415675166331558299, guid: 296c53e0908a85848a5a3bec8c933a6e, type: 3}
  - m_RefCount: 1
    m_Data: {fileID: 8958964884274798394, guid: 296c53e0908a85848a5a3bec8c933a6e, type: 3}
  - m_RefCount: 1
    m_Data: {fileID: 21300000, guid: 4a2fe5a9c275b5b4881a9af8a2129504, type: 3}
  m_TileMatrixArray:
  - m_RefCount: 28
    m_Data:
      e00: 1
      e01: 0
      e02: 0
      e03: 0
      e10: 0
      e11: 1
      e12: 0
      e13: 0
      e20: 0
      e21: 0
      e22: 1
      e23: 0
      e30: 0
      e31: 0
      e32: 0
      e33: 1
  m_TileColorArray:
  - m_RefCount: 28
    m_Data: {r: 1, g: 1, b: 1, a: 1}
  m_TileObjectToInstantiateArray: []
  m_AnimationFrameRate: 1
  m_Color: {r: 1, g: 1, b: 1, a: 1}
  m_Origin: {x: -1, y: -9, z: 0}
  m_Size: {x: 9, y: 11, z: 1}
  m_TileAnchor: {x: 0.5, y: 0.5, z: 0}
  m_TileOrientation: 0
  m_TileOrientationMatrix:
    e00: 1
    e01: 0
    e02: 0
    e03: 0
    e10: 0
    e11: 1
    e12: 0
    e13: 0
    e20: 0
    e21: 0
    e22: 1
    e23: 0
    e30: 0
    e31: 0
    e32: 0
    e33: 1
--- !u!483693784 &3823759430615771277
TilemapRenderer:
  m_ObjectHideFlags: 0
  m_CorrespondingSourceObject: {fileID: 0}
  m_PrefabInstance: {fileID: 0}
  m_PrefabAsset: {fileID: 0}
  m_GameObject: {fileID: 6893550554061825675}
  m_Enabled: 1
  m_CastShadows: 0
  m_ReceiveShadows: 0
  m_DynamicOccludee: 0
  m_MotionVectors: 1
  m_LightProbeUsage: 0
  m_ReflectionProbeUsage: 0
  m_RayTracingMode: 0
  m_RayTraceProcedural: 0
  m_RenderingLayerMask: 1
  m_RendererPriority: 0
  m_Materials:
  - {fileID: 10754, guid: 0000000000000000f000000000000000, type: 0}
  m_StaticBatchInfo:
    firstSubMesh: 0
    subMeshCount: 0
  m_StaticBatchRoot: {fileID: 0}
  m_ProbeAnchor: {fileID: 0}
  m_LightProbeVolumeOverride: {fileID: 0}
  m_ScaleInLightmap: 1
  m_ReceiveGI: 1
  m_PreserveUVs: 0
  m_IgnoreNormalsForChartDetection: 0
  m_ImportantGI: 0
  m_StitchLightmapSeams: 1
  m_SelectedEditorRenderState: 0
  m_MinimumChartSize: 4
  m_AutoUVMaxDistance: 0.5
  m_AutoUVMaxAngle: 89
  m_LightmapParameters: {fileID: 0}
  m_SortingLayerID: 0
  m_SortingLayer: 0
  m_SortingOrder: 0
  m_ChunkSize: {x: 32, y: 32, z: 32}
  m_ChunkCullingBounds: {x: 0, y: 0, z: 0}
  m_MaxChunkCount: 16
  m_MaxFrameAge: 16
  m_SortOrder: 0
  m_Mode: 0
  m_DetectChunkCullingBounds: 0
  m_MaskInteraction: 0
--- !u!114 &7896405344121496507
MonoBehaviour:
  m_ObjectHideFlags: 0
  m_CorrespondingSourceObject: {fileID: 0}
  m_PrefabInstance: {fileID: 0}
  m_PrefabAsset: {fileID: 0}
  m_GameObject: {fileID: 0}
  m_Enabled: 1
  m_EditorHideFlags: 0
  m_Script: {fileID: 12395, guid: 0000000000000000e000000000000000, type: 0}
  m_Name: Palette Settings
  m_EditorClassIdentifier: 
  cellSizing: 0
  m_TransparencySortMode: 0
  m_TransparencySortAxis: {x: 0, y: 0, z: 1}
